STA141A Final Report
…
This plot reveals that summer has many more fires compared to fall
and winter, so the generally increasing trend in the summertime is
important to pay attention to. Winter has the least number of fires and
Fall is in between summer and winter. Note that seasonality is very
important to the number of fires per year.

The following plot explores the question: How does wildfire incidence
vary across space?

byyear <- wildfires %>%
  group_by(FIRE_YEAR) %>%
  summarize(count = n()) 
byyear

## # A tibble: 24 × 2
##    FIRE_YEAR count
##        <int> <int>
##  1      1992  3621
##  2      1993  3169
##  3      1994  4073
##  4      1995  3774
##  5      1996  3903
##  6      1997  3230
##  7      1998  3675
##  8      1999  4717
##  9      2000  5134
## 10      2001  4534
## # ℹ 14 more rows
…
